{
    "authentication":{
        "jwtSecret":"dzJufSRijaSD5bJCXP0tsDHnfZNJgLeLnUHhCM19zqM",
        "jwtExpiry":"14 days"
    },
    "mongodbUri": "mongodb+srv://admin:adminpoliwork@poliworkdb.97itoyo.mongodb.net/?retryWrites=true&w=majority"
}